<?xml version="1.0" encoding="iso-8859-1"?>
<!-- Generator: Adobe Illustrator 19.0.0, SVG Export Plug-In . SVG Version: 6.00 Build 0)  -->
<svg version="1.1" id="Layer_1" xmlns="http://www.w3.org/2000/svg" xmlns:xlink="http://www.w3.org/1999/xlink" x="0px" y="0px"
	 viewBox="0 0 512 512" style="enable-background:new 0 0 512 512;" xml:space="preserve">
<g>
	<path style="fill:#E7ECFD;" d="M135.641,156.684l17.934-15.315c12.315-10.516,26.533-18.973,42.261-25.13l21.207-8.309V3.101
		c-9.449,1.463-18.757,3.335-27.826,5.803c-45.301,12.132-85.704,36.508-117.203,69.343c-8.531,8.776-16.344,18.242-23.544,28.184
		L135.641,156.684z"/>
	<path style="fill:#E7ECFD;" d="M102.717,282.549c-1.685-8.968-2.543-17.902-2.543-26.549c0-5.222,0.413-11.087,1.316-18.462
		l2.652-21.914L16.771,165.21c-3.692,9.719-6.929,19.664-9.425,29.905C2.56,214.595,0,234.963,0,256
		c0,24.487,3.45,48.083,9.906,70.456c2.857,10.062,6.393,19.826,10.415,29.33l86.777-49.943L102.717,282.549z"/>
	<path style="fill:#E7ECFD;" d="M217.043,404.038l-21.25-8.293c-12.826-5-24.761-11.696-35.478-19.897l-17.706-13.549
		l-88.337,51.064c7.641,9.75,15.907,18.984,24.865,27.513c30.497,29.273,68.118,50.977,110.08,62.219
		c9.069,2.469,18.377,4.341,27.826,5.803V404.038z"/>
</g>
<g>
	<path style="fill:#DAE0F0;" d="M376.359,156.684l-17.934-15.315c-12.315-10.516-26.533-18.973-42.261-25.13l-21.207-8.309V3.101
		c9.449,1.463,18.757,3.335,27.826,5.803c45.301,12.132,85.704,36.508,117.203,69.343c8.531,8.776,16.344,18.242,23.544,28.184
		L376.359,156.684z"/>
	<path style="fill:#DAE0F0;" d="M409.283,282.549c1.685-8.968,2.543-17.902,2.543-26.549c0-5.222-0.413-11.087-1.316-18.462
		l-2.652-21.914l87.371-50.414c3.692,9.719,6.929,19.664,9.425,29.905c4.786,19.478,7.346,39.847,7.346,60.883
		c0,24.487-3.45,48.083-9.906,70.456c-2.857,10.062-6.393,19.826-10.415,29.33l-86.777-49.943L409.283,282.549z"/>
	<path style="fill:#DAE0F0;" d="M294.957,404.038l21.25-8.293c12.826-5,24.761-11.696,35.478-19.897l17.706-13.549l88.337,51.064
		c-7.641,9.75-15.907,18.984-24.865,27.513c-30.497,29.273-68.118,50.977-110.08,62.219c-9.069,2.469-18.377,4.341-27.826,5.803
		V404.038z"/>
</g>
<path style="fill:#D03351;" d="M439.652,256c0-7.569-0.668-15.137-1.558-22.483l66.56-38.4
	c-10.908-44.744-33.614-84.925-64.668-116.87l-65.447,37.732c-15.249-13.023-32.723-23.374-51.757-30.831V8.904
	C301.523,3.117,279.151,0,256,0s-45.523,3.117-66.783,8.904v76.243c-19.033,7.457-36.508,17.809-51.757,30.831L72.014,78.247
	c-31.054,31.944-53.76,72.125-64.668,116.87l66.56,38.4c-0.89,7.346-1.558,14.915-1.558,22.483c0,11.13,1.113,22.038,3.117,32.723
	L9.906,326.456c12.577,44.299,36.842,83.59,69.231,114.421c0-0.111,0-0.111,0-0.111l66.449-38.4
	c13.245,10.129,27.937,18.365,43.631,24.487v76.244C210.477,508.883,232.849,512,256,512s45.523-3.117,66.783-8.904v-76.243
	c15.694-6.122,30.386-14.358,43.631-24.487l66.449,38.4h0.111c32.39-30.719,56.543-70.122,69.12-114.31l-65.558-37.732
	C438.539,278.038,439.652,267.13,439.652,256z"/>
<path style="fill:#E7ECFD;" d="M256,406.261c-82.81,0-150.261-67.45-150.261-150.261S173.19,105.739,256,105.739
	S406.261,173.19,406.261,256S338.81,406.261,256,406.261z"/>
<path style="fill:#DAE0F0;" d="M406.261,256c0-82.81-67.45-150.261-150.261-150.261v300.522
	C338.81,406.261,406.261,338.81,406.261,256z"/>
<path style="fill:#D03351;" d="M289.391,239.304h-50.087v-33.391h50.087c9.223,0,16.696-7.473,16.696-16.696
	s-7.473-16.696-16.696-16.696h-16.696v-16.696c0-9.223-7.473-16.696-16.696-16.696s-16.696,7.473-16.696,16.696v16.696h-16.696
	c-9.223,0-16.696,7.473-16.696,16.696V256c0,9.223,7.473,16.696,16.696,16.696h50.087v33.391h-50.087
	c-9.223,0-16.696,7.473-16.696,16.696s7.473,16.696,16.696,16.696h16.696v16.696c0,9.223,7.473,16.696,16.696,16.696
	s16.696-7.473,16.696-16.696v-16.696h16.696c9.223,0,16.696-7.473,16.696-16.696V256
	C306.087,246.777,298.614,239.304,289.391,239.304z"/>
<g>
	<path style="fill:#BA3049;" d="M272.696,356.174v-16.696h16.696c9.223,0,16.696-7.473,16.696-16.696V256
		c0-9.223-7.473-16.696-16.696-16.696H256v33.391h16.696v33.391H256v66.783C265.223,372.87,272.696,365.397,272.696,356.174z"/>
	<path style="fill:#BA3049;" d="M289.391,205.913c9.223,0,16.696-7.473,16.696-16.696s-7.473-16.696-16.696-16.696h-16.696v-16.696
		c0-9.223-7.473-16.696-16.696-16.696v66.783H289.391z"/>
	<path style="fill:#BA3049;" d="M406.261,256c0,82.81-67.45,150.261-150.261,150.261V512c23.151,0,45.523-3.117,66.783-8.904
		v-76.243c15.694-6.122,30.386-14.358,43.631-24.487l66.449,38.4h0.111c32.39-30.719,56.543-70.122,69.12-114.31l-65.558-37.732
		c2.003-10.685,3.116-21.593,3.116-32.723c0-7.569-0.668-15.137-1.558-22.483l66.56-38.4
		c-10.908-44.744-33.614-84.925-64.668-116.87l-65.447,37.732c-15.249-13.023-32.723-23.374-51.757-30.831V8.904
		C301.523,3.117,279.151,0,256,0v105.739C338.81,105.739,406.261,173.19,406.261,256z"/>
</g>
<g>
</g>
<g>
</g>
<g>
</g>
<g>
</g>
<g>
</g>
<g>
</g>
<g>
</g>
<g>
</g>
<g>
</g>
<g>
</g>
<g>
</g>
<g>
</g>
<g>
</g>
<g>
</g>
<g>
</g>
</svg>
